+--------+-----------+---------------------------------------------------------+-------------------------------------+---------------------------------------------------------------------------------+--------------------------------------------------+
| Domain | Method    | URI                                                     | Name                                | Action                                                                          | Middleware                                       |
+--------+-----------+---------------------------------------------------------+-------------------------------------+---------------------------------------------------------------------------------+--------------------------------------------------+
|        | GET|HEAD  | /                                                       |                                     | App\Http\Controllers\HomeController@index                                       | web                                              |
|        | GET|HEAD  | admin                                                   | admin.                              | App\Http\Controllers\LA\DashboardController@index                               | web,auth,permission:ADMIN_PANEL                  |
|        | GET|HEAD  | admin/backup_dt_ajax                                    | admin.                              | App\Http\Controllers\LA\BackupsController@dtajax                                | web,auth,permission:ADMIN_PANEL,Closure          |
|        | GET|HEAD  | admin/backups                                           | admin.backups.index                 | App\Http\Controllers\LA\BackupsController@index                                 | web,auth,permission:ADMIN_PANEL,Closure          |
|        | POST      | admin/backups                                           | admin.backups.store                 | App\Http\Controllers\LA\BackupsController@store                                 | web,auth,permission:ADMIN_PANEL,Closure          |
|        | GET|HEAD  | admin/backups/create                                    | admin.backups.create                | App\Http\Controllers\LA\BackupsController@create                                | web,auth,permission:ADMIN_PANEL,Closure          |
|        | GET|HEAD  | admin/backups/{backup}                                  | admin.backups.show                  | App\Http\Controllers\LA\BackupsController@show                                  | web,auth,permission:ADMIN_PANEL,Closure          |
|        | PUT|PATCH | admin/backups/{backup}                                  | admin.backups.update                | App\Http\Controllers\LA\BackupsController@update                                | web,auth,permission:ADMIN_PANEL,Closure          |
|        | DELETE    | admin/backups/{backup}                                  | admin.backups.destroy               | App\Http\Controllers\LA\BackupsController@destroy                               | web,auth,permission:ADMIN_PANEL,Closure          |
|        | GET|HEAD  | admin/backups/{backup}/edit                             | admin.backups.edit                  | App\Http\Controllers\LA\BackupsController@edit                                  | web,auth,permission:ADMIN_PANEL,Closure          |
|        | GET|HEAD  | admin/branch_dt_ajax                                    | admin.                              | App\Http\Controllers\LA\BranchesController@dtajax                               | web,auth,permission:ADMIN_PANEL,Closure          |
|        | GET|HEAD  | admin/branches                                          | admin.branches.index                | App\Http\Controllers\LA\BranchesController@index                                | web,auth,permission:ADMIN_PANEL,Closure          |
|        | POST      | admin/branches                                          | admin.branches.store                | App\Http\Controllers\LA\BranchesController@store                                | web,auth,permission:ADMIN_PANEL,Closure          |
|        | GET|HEAD  | admin/branches/create                                   | admin.branches.create               | App\Http\Controllers\LA\BranchesController@create                               | web,auth,permission:ADMIN_PANEL,Closure          |
|        | GET|HEAD  | admin/branches/{branch}                                 | admin.branches.show                 | App\Http\Controllers\LA\BranchesController@show                                 | web,auth,permission:ADMIN_PANEL,Closure          |
|        | PUT|PATCH | admin/branches/{branch}                                 | admin.branches.update               | App\Http\Controllers\LA\BranchesController@update                               | web,auth,permission:ADMIN_PANEL,Closure          |
|        | DELETE    | admin/branches/{branch}                                 | admin.branches.destroy              | App\Http\Controllers\LA\BranchesController@destroy                              | web,auth,permission:ADMIN_PANEL,Closure          |
|        | GET|HEAD  | admin/branches/{branch}/edit                            | admin.branches.edit                 | App\Http\Controllers\LA\BranchesController@edit                                 | web,auth,permission:ADMIN_PANEL,Closure          |
|        | POST      | admin/change_password/{id}                              | admin.                              | App\Http\Controllers\LA\EmployeesController@change_password                     | web,auth,permission:ADMIN_PANEL,Closure          |
|        | POST      | admin/check_unique_val/{field_id}                       | admin.                              | DesarrollatuApp\NWCRM\Controllers\FieldController@check_unique_val              | web,auth,permission:ADMIN_PANEL                  |
|        | GET|HEAD  | admin/client_dt_ajax                                    | admin.                              | App\Http\Controllers\LA\ClientsController@dtajax                                | web,auth,permission:ADMIN_PANEL,Closure          |
|        | GET|HEAD  | admin/clients                                           | admin.clients.index                 | App\Http\Controllers\LA\ClientsController@index                                 | web,auth,permission:ADMIN_PANEL,Closure          |
|        | POST      | admin/clients                                           | admin.clients.store                 | App\Http\Controllers\LA\ClientsController@store                                 | web,auth,permission:ADMIN_PANEL,Closure          |
|        | GET|HEAD  | admin/clients/create                                    | admin.clients.create                | App\Http\Controllers\LA\ClientsController@create                                | web,auth,permission:ADMIN_PANEL,Closure          |
|        | POST      | admin/clients/import                                    | admin.                              | App\Http\Controllers\LA\ClientsController@import                                | web,auth,permission:ADMIN_PANEL,Closure          |
|        | GET|HEAD  | admin/clients/{client}                                  | admin.clients.show                  | App\Http\Controllers\LA\ClientsController@show                                  | web,auth,permission:ADMIN_PANEL,Closure          |
|        | PUT|PATCH | admin/clients/{client}                                  | admin.clients.update                | App\Http\Controllers\LA\ClientsController@update                                | web,auth,permission:ADMIN_PANEL,Closure          |
|        | DELETE    | admin/clients/{client}                                  | admin.clients.destroy               | App\Http\Controllers\LA\ClientsController@destroy                               | web,auth,permission:ADMIN_PANEL,Closure          |
|        | GET|HEAD  | admin/clients/{client}/edit                             | admin.clients.edit                  | App\Http\Controllers\LA\ClientsController@edit                                  | web,auth,permission:ADMIN_PANEL,Closure          |
|        | GET|HEAD  | admin/countries                                         | admin.countries.index               | App\Http\Controllers\LA\CountriesController@index                               | web,auth,permission:ADMIN_PANEL,Closure          |
|        | POST      | admin/countries                                         | admin.countries.store               | App\Http\Controllers\LA\CountriesController@store                               | web,auth,permission:ADMIN_PANEL,Closure          |
|        | GET|HEAD  | admin/countries/create                                  | admin.countries.create              | App\Http\Controllers\LA\CountriesController@create                              | web,auth,permission:ADMIN_PANEL,Closure          |
|        | GET|HEAD  | admin/countries/{country}                               | admin.countries.show                | App\Http\Controllers\LA\CountriesController@show                                | web,auth,permission:ADMIN_PANEL,Closure          |
|        | DELETE    | admin/countries/{country}                               | admin.countries.destroy             | App\Http\Controllers\LA\CountriesController@destroy                             | web,auth,permission:ADMIN_PANEL,Closure          |
|        | PUT|PATCH | admin/countries/{country}                               | admin.countries.update              | App\Http\Controllers\LA\CountriesController@update                              | web,auth,permission:ADMIN_PANEL,Closure          |
|        | GET|HEAD  | admin/countries/{country}/edit                          | admin.countries.edit                | App\Http\Controllers\LA\CountriesController@edit                                | web,auth,permission:ADMIN_PANEL,Closure          |
|        | GET|HEAD  | admin/country_dt_ajax                                   | admin.                              | App\Http\Controllers\LA\CountriesController@dtajax                              | web,auth,permission:ADMIN_PANEL,Closure          |
|        | POST      | admin/create_backup_ajax                                | admin.                              | App\Http\Controllers\LA\BackupsController@create_backup_ajax                    | web,auth,permission:ADMIN_PANEL,Closure          |
|        | GET|HEAD  | admin/dashboard                                         | admin.                              | App\Http\Controllers\LA\DashboardController@index                               | web,auth,permission:ADMIN_PANEL                  |
|        | GET|HEAD  | admin/department_dt_ajax                                | admin.                              | App\Http\Controllers\LA\DepartmentsController@dtajax                            | web,auth,permission:ADMIN_PANEL,Closure          |
|        | GET|HEAD  | admin/departments                                       | admin.departments.index             | App\Http\Controllers\LA\DepartmentsController@index                             | web,auth,permission:ADMIN_PANEL,Closure          |
|        | POST      | admin/departments                                       | admin.departments.store             | App\Http\Controllers\LA\DepartmentsController@store                             | web,auth,permission:ADMIN_PANEL,Closure          |
|        | GET|HEAD  | admin/departments/create                                | admin.departments.create            | App\Http\Controllers\LA\DepartmentsController@create                            | web,auth,permission:ADMIN_PANEL,Closure          |
|        | GET|HEAD  | admin/departments/{department}                          | admin.departments.show              | App\Http\Controllers\LA\DepartmentsController@show                              | web,auth,permission:ADMIN_PANEL,Closure          |
|        | PUT|PATCH | admin/departments/{department}                          | admin.departments.update            | App\Http\Controllers\LA\DepartmentsController@update                            | web,auth,permission:ADMIN_PANEL,Closure          |
|        | DELETE    | admin/departments/{department}                          | admin.departments.destroy           | App\Http\Controllers\LA\DepartmentsController@destroy                           | web,auth,permission:ADMIN_PANEL,Closure          |
|        | GET|HEAD  | admin/departments/{department}/edit                     | admin.departments.edit              | App\Http\Controllers\LA\DepartmentsController@edit                              | web,auth,permission:ADMIN_PANEL,Closure          |
|        | GET|HEAD  | admin/downloadBackup/{id}                               | admin.                              | App\Http\Controllers\LA\BackupsController@downloadBackup                        | web,auth,permission:ADMIN_PANEL,Closure          |
|        | GET|HEAD  | admin/employee_dt_ajax                                  | admin.                              | App\Http\Controllers\LA\EmployeesController@dtajax                              | web,auth,permission:ADMIN_PANEL,Closure          |
|        | POST      | admin/employees                                         | admin.employees.store               | App\Http\Controllers\LA\EmployeesController@store                               | web,auth,permission:ADMIN_PANEL,Closure          |
|        | GET|HEAD  | admin/employees                                         | admin.employees.index               | App\Http\Controllers\LA\EmployeesController@index                               | web,auth,permission:ADMIN_PANEL,Closure          |
|        | GET|HEAD  | admin/employees/create                                  | admin.employees.create              | App\Http\Controllers\LA\EmployeesController@create                              | web,auth,permission:ADMIN_PANEL,Closure          |
|        | GET|HEAD  | admin/employees/{employee}                              | admin.employees.show                | App\Http\Controllers\LA\EmployeesController@show                                | web,auth,permission:ADMIN_PANEL,Closure          |
|        | DELETE    | admin/employees/{employee}                              | admin.employees.destroy             | App\Http\Controllers\LA\EmployeesController@destroy                             | web,auth,permission:ADMIN_PANEL,Closure          |
|        | PUT|PATCH | admin/employees/{employee}                              | admin.employees.update              | App\Http\Controllers\LA\EmployeesController@update                              | web,auth,permission:ADMIN_PANEL,Closure          |
|        | GET|HEAD  | admin/employees/{employee}/edit                         | admin.employees.edit                | App\Http\Controllers\LA\EmployeesController@edit                                | web,auth,permission:ADMIN_PANEL,Closure          |
|        | POST      | admin/failed_deliveries                                 | admin.failed_deliveries.store       | App\Http\Controllers\LA\Failed_DeliveriesController@store                       | web,auth,permission:ADMIN_PANEL,Closure          |
|        | GET|HEAD  | admin/failed_deliveries                                 | admin.failed_deliveries.index       | App\Http\Controllers\LA\Failed_DeliveriesController@index                       | web,auth,permission:ADMIN_PANEL,Closure          |
|        | GET|HEAD  | admin/failed_deliveries/create                          | admin.failed_deliveries.create      | App\Http\Controllers\LA\Failed_DeliveriesController@create                      | web,auth,permission:ADMIN_PANEL,Closure          |
|        | DELETE    | admin/failed_deliveries/{failed_delivery}               | admin.failed_deliveries.destroy     | App\Http\Controllers\LA\Failed_DeliveriesController@destroy                     | web,auth,permission:ADMIN_PANEL,Closure          |
|        | PUT|PATCH | admin/failed_deliveries/{failed_delivery}               | admin.failed_deliveries.update      | App\Http\Controllers\LA\Failed_DeliveriesController@update                      | web,auth,permission:ADMIN_PANEL,Closure          |
|        | GET|HEAD  | admin/failed_deliveries/{failed_delivery}               | admin.failed_deliveries.show        | App\Http\Controllers\LA\Failed_DeliveriesController@show                        | web,auth,permission:ADMIN_PANEL,Closure          |
|        | GET|HEAD  | admin/failed_deliveries/{failed_delivery}/edit          | admin.failed_deliveries.edit        | App\Http\Controllers\LA\Failed_DeliveriesController@edit                        | web,auth,permission:ADMIN_PANEL,Closure          |
|        | GET|HEAD  | admin/failed_delivery_dt_ajax                           | admin.                              | App\Http\Controllers\LA\Failed_DeliveriesController@dtajax                      | web,auth,permission:ADMIN_PANEL,Closure          |
|        | GET|HEAD  | admin/follow_up_dt_ajax                                 | admin.                              | App\Http\Controllers\LA\Follow_UpsController@dtajax                             | web,auth,permission:ADMIN_PANEL,Closure          |
|        | POST      | admin/follow_ups                                        | admin.follow_ups.store              | App\Http\Controllers\LA\Follow_UpsController@store                              | web,auth,permission:ADMIN_PANEL,Closure          |
|        | GET|HEAD  | admin/follow_ups                                        | admin.follow_ups.index              | App\Http\Controllers\LA\Follow_UpsController@index                              | web,auth,permission:ADMIN_PANEL,Closure          |
|        | GET|HEAD  | admin/follow_ups/create                                 | admin.follow_ups.create             | App\Http\Controllers\LA\Follow_UpsController@create                             | web,auth,permission:ADMIN_PANEL,Closure          |
|        | DELETE    | admin/follow_ups/{follow_up}                            | admin.follow_ups.destroy            | App\Http\Controllers\LA\Follow_UpsController@destroy                            | web,auth,permission:ADMIN_PANEL,Closure          |
|        | PUT|PATCH | admin/follow_ups/{follow_up}                            | admin.follow_ups.update             | App\Http\Controllers\LA\Follow_UpsController@update                             | web,auth,permission:ADMIN_PANEL,Closure          |
|        | GET|HEAD  | admin/follow_ups/{follow_up}                            | admin.follow_ups.show               | App\Http\Controllers\LA\Follow_UpsController@show                               | web,auth,permission:ADMIN_PANEL,Closure          |
|        | GET|HEAD  | admin/follow_ups/{follow_up}/edit                       | admin.follow_ups.edit               | App\Http\Controllers\LA\Follow_UpsController@edit                               | web,auth,permission:ADMIN_PANEL,Closure          |
|        | POST      | admin/get_module_files/{module_id}                      | admin.                              | DesarrollatuApp\NWCRM\Controllers\ModuleController@get_module_files             | web,auth,permission:ADMIN_PANEL,role:SUPER_ADMIN |
|        | GET|HEAD  | admin/la_configs                                        | admin.la_configs.index              | App\Http\Controllers\LA\LAConfigController@index                                | web,auth,permission:ADMIN_PANEL,role:SUPER_ADMIN |
|        | POST      | admin/la_configs                                        | admin.la_configs.store              | App\Http\Controllers\LA\LAConfigController@store                                | web,auth,permission:ADMIN_PANEL,role:SUPER_ADMIN |
|        | GET|HEAD  | admin/la_configs/create                                 | admin.la_configs.create             | App\Http\Controllers\LA\LAConfigController@create                               | web,auth,permission:ADMIN_PANEL,role:SUPER_ADMIN |
|        | DELETE    | admin/la_configs/{la_config}                            | admin.la_configs.destroy            | App\Http\Controllers\LA\LAConfigController@destroy                              | web,auth,permission:ADMIN_PANEL,role:SUPER_ADMIN |
|        | GET|HEAD  | admin/la_configs/{la_config}                            | admin.la_configs.show               | App\Http\Controllers\LA\LAConfigController@show                                 | web,auth,permission:ADMIN_PANEL,role:SUPER_ADMIN |
|        | PUT|PATCH | admin/la_configs/{la_config}                            | admin.la_configs.update             | App\Http\Controllers\LA\LAConfigController@update                               | web,auth,permission:ADMIN_PANEL,role:SUPER_ADMIN |
|        | GET|HEAD  | admin/la_configs/{la_config}/edit                       | admin.la_configs.edit               | App\Http\Controllers\LA\LAConfigController@edit                                 | web,auth,permission:ADMIN_PANEL,role:SUPER_ADMIN |
|        | POST      | admin/la_menus                                          | admin.la_menus.store                | DesarrollatuApp\NWCRM\Controllers\MenuController@store                          | web,auth,permission:ADMIN_PANEL,role:SUPER_ADMIN |
|        | GET|HEAD  | admin/la_menus                                          | admin.la_menus.index                | DesarrollatuApp\NWCRM\Controllers\MenuController@index                          | web,auth,permission:ADMIN_PANEL,role:SUPER_ADMIN |
|        | GET|HEAD  | admin/la_menus/create                                   | admin.la_menus.create               | DesarrollatuApp\NWCRM\Controllers\MenuController@create                         | web,auth,permission:ADMIN_PANEL,role:SUPER_ADMIN |
|        | POST      | admin/la_menus/update_hierarchy                         | admin.                              | DesarrollatuApp\NWCRM\Controllers\MenuController@update_hierarchy               | web,auth,permission:ADMIN_PANEL,role:SUPER_ADMIN |
|        | DELETE    | admin/la_menus/{la_menu}                                | admin.la_menus.destroy              | DesarrollatuApp\NWCRM\Controllers\MenuController@destroy                        | web,auth,permission:ADMIN_PANEL,role:SUPER_ADMIN |
|        | PUT|PATCH | admin/la_menus/{la_menu}                                | admin.la_menus.update               | DesarrollatuApp\NWCRM\Controllers\MenuController@update                         | web,auth,permission:ADMIN_PANEL,role:SUPER_ADMIN |
|        | GET|HEAD  | admin/la_menus/{la_menu}                                | admin.la_menus.show                 | DesarrollatuApp\NWCRM\Controllers\MenuController@show                           | web,auth,permission:ADMIN_PANEL,role:SUPER_ADMIN |
|        | GET|HEAD  | admin/la_menus/{la_menu}/edit                           | admin.la_menus.edit                 | DesarrollatuApp\NWCRM\Controllers\MenuController@edit                           | web,auth,permission:ADMIN_PANEL,role:SUPER_ADMIN |
|        | GET|HEAD  | admin/language_dt_ajax                                  | admin.                              | App\Http\Controllers\LA\LanguagesController@dtajax                              | web,auth,permission:ADMIN_PANEL,Closure          |
|        | GET|HEAD  | admin/languages                                         | admin.languages.index               | App\Http\Controllers\LA\LanguagesController@index                               | web,auth,permission:ADMIN_PANEL,Closure          |
|        | POST      | admin/languages                                         | admin.languages.store               | App\Http\Controllers\LA\LanguagesController@store                               | web,auth,permission:ADMIN_PANEL,Closure          |
|        | GET|HEAD  | admin/languages/create                                  | admin.languages.create              | App\Http\Controllers\LA\LanguagesController@create                              | web,auth,permission:ADMIN_PANEL,Closure          |
|        | GET|HEAD  | admin/languages/google_translate/{id}                   | admin.                              | App\Http\Controllers\LA\LanguagesController@google_translate                    | web,auth,permission:ADMIN_PANEL,Closure          |
|        | DELETE    | admin/languages/{language}                              | admin.languages.destroy             | App\Http\Controllers\LA\LanguagesController@destroy                             | web,auth,permission:ADMIN_PANEL,Closure          |
|        | GET|HEAD  | admin/languages/{language}                              | admin.languages.show                | App\Http\Controllers\LA\LanguagesController@show                                | web,auth,permission:ADMIN_PANEL,Closure          |
|        | PUT|PATCH | admin/languages/{language}                              | admin.languages.update              | App\Http\Controllers\LA\LanguagesController@update                              | web,auth,permission:ADMIN_PANEL,Closure          |
|        | GET|HEAD  | admin/languages/{language}/edit                         | admin.languages.edit                | App\Http\Controllers\LA\LanguagesController@edit                                | web,auth,permission:ADMIN_PANEL,Closure          |
|        | GET|HEAD  | admin/module_fields                                     | admin.module_fields.index           | DesarrollatuApp\NWCRM\Controllers\FieldController@index                         | web,auth,permission:ADMIN_PANEL,role:SUPER_ADMIN |
|        | POST      | admin/module_fields                                     | admin.module_fields.store           | DesarrollatuApp\NWCRM\Controllers\FieldController@store                         | web,auth,permission:ADMIN_PANEL,role:SUPER_ADMIN |
|        | GET|HEAD  | admin/module_fields/create                              | admin.module_fields.create          | DesarrollatuApp\NWCRM\Controllers\FieldController@create                        | web,auth,permission:ADMIN_PANEL,role:SUPER_ADMIN |
|        | GET|HEAD  | admin/module_fields/{id}/delete                         | admin.                              | DesarrollatuApp\NWCRM\Controllers\FieldController@destroy                       | web,auth,permission:ADMIN_PANEL,role:SUPER_ADMIN |
|        | PUT|PATCH | admin/module_fields/{module_field}                      | admin.module_fields.update          | DesarrollatuApp\NWCRM\Controllers\FieldController@update                        | web,auth,permission:ADMIN_PANEL,role:SUPER_ADMIN |
|        | DELETE    | admin/module_fields/{module_field}                      | admin.module_fields.destroy         | DesarrollatuApp\NWCRM\Controllers\FieldController@destroy                       | web,auth,permission:ADMIN_PANEL,role:SUPER_ADMIN |
|        | GET|HEAD  | admin/module_fields/{module_field}                      | admin.module_fields.show            | DesarrollatuApp\NWCRM\Controllers\FieldController@show                          | web,auth,permission:ADMIN_PANEL,role:SUPER_ADMIN |
|        | GET|HEAD  | admin/module_fields/{module_field}/edit                 | admin.module_fields.edit            | DesarrollatuApp\NWCRM\Controllers\FieldController@edit                          | web,auth,permission:ADMIN_PANEL,role:SUPER_ADMIN |
|        | GET|HEAD  | admin/module_generate_crud/{model_id}                   | admin.                              | DesarrollatuApp\NWCRM\Controllers\ModuleController@generate_crud                | web,auth,permission:ADMIN_PANEL,role:SUPER_ADMIN |
|        | GET|HEAD  | admin/module_generate_migr/{model_id}                   | admin.                              | DesarrollatuApp\NWCRM\Controllers\ModuleController@generate_migr                | web,auth,permission:ADMIN_PANEL,role:SUPER_ADMIN |
|        | GET|HEAD  | admin/module_generate_migr_crud/{model_id}              | admin.                              | DesarrollatuApp\NWCRM\Controllers\ModuleController@generate_migr_crud           | web,auth,permission:ADMIN_PANEL,role:SUPER_ADMIN |
|        | GET|HEAD  | admin/module_generate_update/{model_id}                 | admin.                              | DesarrollatuApp\NWCRM\Controllers\ModuleController@generate_update              | web,auth,permission:ADMIN_PANEL,role:SUPER_ADMIN |
|        | GET|HEAD  | admin/modules                                           | admin.modules.index                 | DesarrollatuApp\NWCRM\Controllers\ModuleController@index                        | web,auth,permission:ADMIN_PANEL,role:SUPER_ADMIN |
|        | POST      | admin/modules                                           | admin.modules.store                 | DesarrollatuApp\NWCRM\Controllers\ModuleController@store                        | web,auth,permission:ADMIN_PANEL,role:SUPER_ADMIN |
|        | GET|HEAD  | admin/modules/create                                    | admin.modules.create                | DesarrollatuApp\NWCRM\Controllers\ModuleController@create                       | web,auth,permission:ADMIN_PANEL,role:SUPER_ADMIN |
|        | GET|HEAD  | admin/modules/{model_id}/set_view_col/{column_name}     | admin.                              | DesarrollatuApp\NWCRM\Controllers\ModuleController@set_view_col                 | web,auth,permission:ADMIN_PANEL,role:SUPER_ADMIN |
|        | GET|HEAD  | admin/modules/{module}                                  | admin.modules.show                  | DesarrollatuApp\NWCRM\Controllers\ModuleController@show                         | web,auth,permission:ADMIN_PANEL,role:SUPER_ADMIN |
|        | PUT|PATCH | admin/modules/{module}                                  | admin.modules.update                | DesarrollatuApp\NWCRM\Controllers\ModuleController@update                       | web,auth,permission:ADMIN_PANEL,role:SUPER_ADMIN |
|        | DELETE    | admin/modules/{module}                                  | admin.modules.destroy               | DesarrollatuApp\NWCRM\Controllers\ModuleController@destroy                      | web,auth,permission:ADMIN_PANEL,role:SUPER_ADMIN |
|        | GET|HEAD  | admin/modules/{module}/edit                             | admin.modules.edit                  | DesarrollatuApp\NWCRM\Controllers\ModuleController@edit                         | web,auth,permission:ADMIN_PANEL,role:SUPER_ADMIN |
|        | GET|HEAD  | admin/organization_dt_ajax                              | admin.                              | App\Http\Controllers\LA\OrganizationsController@dtajax                          | web,auth,permission:ADMIN_PANEL,Closure          |
|        | POST      | admin/organizations                                     | admin.organizations.store           | App\Http\Controllers\LA\OrganizationsController@store                           | web,auth,permission:ADMIN_PANEL,Closure          |
|        | GET|HEAD  | admin/organizations                                     | admin.organizations.index           | App\Http\Controllers\LA\OrganizationsController@index                           | web,auth,permission:ADMIN_PANEL,Closure          |
|        | GET|HEAD  | admin/organizations/create                              | admin.organizations.create          | App\Http\Controllers\LA\OrganizationsController@create                          | web,auth,permission:ADMIN_PANEL,Closure          |
|        | GET|HEAD  | admin/organizations/{organization}                      | admin.organizations.show            | App\Http\Controllers\LA\OrganizationsController@show                            | web,auth,permission:ADMIN_PANEL,Closure          |
|        | PUT|PATCH | admin/organizations/{organization}                      | admin.organizations.update          | App\Http\Controllers\LA\OrganizationsController@update                          | web,auth,permission:ADMIN_PANEL,Closure          |
|        | DELETE    | admin/organizations/{organization}                      | admin.organizations.destroy         | App\Http\Controllers\LA\OrganizationsController@destroy                         | web,auth,permission:ADMIN_PANEL,Closure          |
|        | GET|HEAD  | admin/organizations/{organization}/edit                 | admin.organizations.edit            | App\Http\Controllers\LA\OrganizationsController@edit                            | web,auth,permission:ADMIN_PANEL,Closure          |
|        | GET|HEAD  | admin/package_dt_ajax                                   | admin.                              | App\Http\Controllers\LA\PackagesController@dtajax                               | web,auth,permission:ADMIN_PANEL,Closure          |
|        | GET|HEAD  | admin/package_type_dt_ajax                              | admin.                              | App\Http\Controllers\LA\Package_TypesController@dtajax                          | web,auth,permission:ADMIN_PANEL,Closure          |
|        | GET|HEAD  | admin/package_types                                     | admin.package_types.index           | App\Http\Controllers\LA\Package_TypesController@index                           | web,auth,permission:ADMIN_PANEL,Closure          |
|        | POST      | admin/package_types                                     | admin.package_types.store           | App\Http\Controllers\LA\Package_TypesController@store                           | web,auth,permission:ADMIN_PANEL,Closure          |
|        | GET|HEAD  | admin/package_types/create                              | admin.package_types.create          | App\Http\Controllers\LA\Package_TypesController@create                          | web,auth,permission:ADMIN_PANEL,Closure          |
|        | PUT|PATCH | admin/package_types/{package_type}                      | admin.package_types.update          | App\Http\Controllers\LA\Package_TypesController@update                          | web,auth,permission:ADMIN_PANEL,Closure          |
|        | DELETE    | admin/package_types/{package_type}                      | admin.package_types.destroy         | App\Http\Controllers\LA\Package_TypesController@destroy                         | web,auth,permission:ADMIN_PANEL,Closure          |
|        | GET|HEAD  | admin/package_types/{package_type}                      | admin.package_types.show            | App\Http\Controllers\LA\Package_TypesController@show                            | web,auth,permission:ADMIN_PANEL,Closure          |
|        | GET|HEAD  | admin/package_types/{package_type}/edit                 | admin.package_types.edit            | App\Http\Controllers\LA\Package_TypesController@edit                            | web,auth,permission:ADMIN_PANEL,Closure          |
|        | POST      | admin/packages                                          | admin.packages.store                | App\Http\Controllers\LA\PackagesController@store                                | web,auth,permission:ADMIN_PANEL,Closure          |
|        | GET|HEAD  | admin/packages                                          | admin.packages.index                | App\Http\Controllers\LA\PackagesController@index                                | web,auth,permission:ADMIN_PANEL,Closure          |
|        | GET|HEAD  | admin/packages/create                                   | admin.packages.create               | App\Http\Controllers\LA\PackagesController@create                               | web,auth,permission:ADMIN_PANEL,Closure          |
|        | PUT|PATCH | admin/packages/{package}                                | admin.packages.update               | App\Http\Controllers\LA\PackagesController@update                               | web,auth,permission:ADMIN_PANEL,Closure          |
|        | DELETE    | admin/packages/{package}                                | admin.packages.destroy              | App\Http\Controllers\LA\PackagesController@destroy                              | web,auth,permission:ADMIN_PANEL,Closure          |
|        | GET|HEAD  | admin/packages/{package}                                | admin.packages.show                 | App\Http\Controllers\LA\PackagesController@show                                 | web,auth,permission:ADMIN_PANEL,Closure          |
|        | GET|HEAD  | admin/packages/{package}/edit                           | admin.packages.edit                 | App\Http\Controllers\LA\PackagesController@edit                                 | web,auth,permission:ADMIN_PANEL,Closure          |
|        | GET|HEAD  | admin/permission_dt_ajax                                | admin.                              | App\Http\Controllers\LA\PermissionsController@dtajax                            | web,auth,permission:ADMIN_PANEL,Closure          |
|        | POST      | admin/permissions                                       | admin.permissions.store             | App\Http\Controllers\LA\PermissionsController@store                             | web,auth,permission:ADMIN_PANEL,Closure          |
|        | GET|HEAD  | admin/permissions                                       | admin.permissions.index             | App\Http\Controllers\LA\PermissionsController@index                             | web,auth,permission:ADMIN_PANEL,Closure          |
|        | GET|HEAD  | admin/permissions/create                                | admin.permissions.create            | App\Http\Controllers\LA\PermissionsController@create                            | web,auth,permission:ADMIN_PANEL,Closure          |
|        | GET|HEAD  | admin/permissions/{permission}                          | admin.permissions.show              | App\Http\Controllers\LA\PermissionsController@show                              | web,auth,permission:ADMIN_PANEL,Closure          |
|        | DELETE    | admin/permissions/{permission}                          | admin.permissions.destroy           | App\Http\Controllers\LA\PermissionsController@destroy                           | web,auth,permission:ADMIN_PANEL,Closure          |
|        | PUT|PATCH | admin/permissions/{permission}                          | admin.permissions.update            | App\Http\Controllers\LA\PermissionsController@update                            | web,auth,permission:ADMIN_PANEL,Closure          |
|        | GET|HEAD  | admin/permissions/{permission}/edit                     | admin.permissions.edit              | App\Http\Controllers\LA\PermissionsController@edit                              | web,auth,permission:ADMIN_PANEL,Closure          |
|        | GET|HEAD  | admin/purchase_dt_ajax                                  | admin.                              | App\Http\Controllers\LA\PurchasesController@dtajax                              | web,auth,permission:ADMIN_PANEL,Closure          |
|        | POST      | admin/purchases                                         | admin.purchases.store               | App\Http\Controllers\LA\PurchasesController@store                               | web,auth,permission:ADMIN_PANEL,Closure          |
|        | GET|HEAD  | admin/purchases                                         | admin.purchases.index               | App\Http\Controllers\LA\PurchasesController@index                               | web,auth,permission:ADMIN_PANEL,Closure          |
|        | GET|HEAD  | admin/purchases/create                                  | admin.purchases.create              | App\Http\Controllers\LA\PurchasesController@create                              | web,auth,permission:ADMIN_PANEL,Closure          |
|        | PUT|PATCH | admin/purchases/{purchase}                              | admin.purchases.update              | App\Http\Controllers\LA\PurchasesController@update                              | web,auth,permission:ADMIN_PANEL,Closure          |
|        | DELETE    | admin/purchases/{purchase}                              | admin.purchases.destroy             | App\Http\Controllers\LA\PurchasesController@destroy                             | web,auth,permission:ADMIN_PANEL,Closure          |
|        | GET|HEAD  | admin/purchases/{purchase}                              | admin.purchases.show                | App\Http\Controllers\LA\PurchasesController@show                                | web,auth,permission:ADMIN_PANEL,Closure          |
|        | GET|HEAD  | admin/purchases/{purchase}/edit                         | admin.purchases.edit                | App\Http\Controllers\LA\PurchasesController@edit                                | web,auth,permission:ADMIN_PANEL,Closure          |
|        | GET|HEAD  | admin/purchaseshipment_dt_ajax                          | admin.                              | App\Http\Controllers\LA\PurchaseShipmentsController@dtajax                      | web,auth,permission:ADMIN_PANEL,Closure          |
|        | GET|HEAD  | admin/purchaseshipments                                 | admin.purchaseshipments.index       | App\Http\Controllers\LA\PurchaseShipmentsController@index                       | web,auth,permission:ADMIN_PANEL,Closure          |
|        | POST      | admin/purchaseshipments                                 | admin.purchaseshipments.store       | App\Http\Controllers\LA\PurchaseShipmentsController@store                       | web,auth,permission:ADMIN_PANEL,Closure          |
|        | GET|HEAD  | admin/purchaseshipments/create                          | admin.purchaseshipments.create      | App\Http\Controllers\LA\PurchaseShipmentsController@create                      | web,auth,permission:ADMIN_PANEL,Closure          |
|        | DELETE    | admin/purchaseshipments/{purchaseshipment}              | admin.purchaseshipments.destroy     | App\Http\Controllers\LA\PurchaseShipmentsController@destroy                     | web,auth,permission:ADMIN_PANEL,Closure          |
|        | PUT|PATCH | admin/purchaseshipments/{purchaseshipment}              | admin.purchaseshipments.update      | App\Http\Controllers\LA\PurchaseShipmentsController@update                      | web,auth,permission:ADMIN_PANEL,Closure          |
|        | GET|HEAD  | admin/purchaseshipments/{purchaseshipment}              | admin.purchaseshipments.show        | App\Http\Controllers\LA\PurchaseShipmentsController@show                        | web,auth,permission:ADMIN_PANEL,Closure          |
|        | GET|HEAD  | admin/purchaseshipments/{purchaseshipment}/edit         | admin.purchaseshipments.edit        | App\Http\Controllers\LA\PurchaseShipmentsController@edit                        | web,auth,permission:ADMIN_PANEL,Closure          |
|        | GET|HEAD  | admin/receipt_dt_ajax                                   | admin.                              | App\Http\Controllers\LA\ReceiptsController@dtajax                               | web,auth,permission:ADMIN_PANEL,Closure          |
|        | GET|HEAD  | admin/receipts                                          | admin.receipts.index                | App\Http\Controllers\LA\ReceiptsController@index                                | web,auth,permission:ADMIN_PANEL,Closure          |
|        | POST      | admin/receipts                                          | admin.receipts.store                | App\Http\Controllers\LA\ReceiptsController@store                                | web,auth,permission:ADMIN_PANEL,Closure          |
|        | GET|HEAD  | admin/receipts/create                                   | admin.receipts.create               | App\Http\Controllers\LA\ReceiptsController@create                               | web,auth,permission:ADMIN_PANEL,Closure          |
|        | GET|HEAD  | admin/receipts/{receipt}                                | admin.receipts.show                 | App\Http\Controllers\LA\ReceiptsController@show                                 | web,auth,permission:ADMIN_PANEL,Closure          |
|        | PUT|PATCH | admin/receipts/{receipt}                                | admin.receipts.update               | App\Http\Controllers\LA\ReceiptsController@update                               | web,auth,permission:ADMIN_PANEL,Closure          |
|        | DELETE    | admin/receipts/{receipt}                                | admin.receipts.destroy              | App\Http\Controllers\LA\ReceiptsController@destroy                              | web,auth,permission:ADMIN_PANEL,Closure          |
|        | GET|HEAD  | admin/receipts/{receipt}/edit                           | admin.receipts.edit                 | App\Http\Controllers\LA\ReceiptsController@edit                                 | web,auth,permission:ADMIN_PANEL,Closure          |
|        | GET|HEAD  | admin/role_dt_ajax                                      | admin.                              | App\Http\Controllers\LA\RolesController@dtajax                                  | web,auth,permission:ADMIN_PANEL,Closure          |
|        | GET|HEAD  | admin/roles                                             | admin.roles.index                   | App\Http\Controllers\LA\RolesController@index                                   | web,auth,permission:ADMIN_PANEL,Closure          |
|        | POST      | admin/roles                                             | admin.roles.store                   | App\Http\Controllers\LA\RolesController@store                                   | web,auth,permission:ADMIN_PANEL,Closure          |
|        | GET|HEAD  | admin/roles/create                                      | admin.roles.create                  | App\Http\Controllers\LA\RolesController@create                                  | web,auth,permission:ADMIN_PANEL,Closure          |
|        | PUT|PATCH | admin/roles/{role}                                      | admin.roles.update                  | App\Http\Controllers\LA\RolesController@update                                  | web,auth,permission:ADMIN_PANEL,Closure          |
|        | DELETE    | admin/roles/{role}                                      | admin.roles.destroy                 | App\Http\Controllers\LA\RolesController@destroy                                 | web,auth,permission:ADMIN_PANEL,Closure          |
|        | GET|HEAD  | admin/roles/{role}                                      | admin.roles.show                    | App\Http\Controllers\LA\RolesController@show                                    | web,auth,permission:ADMIN_PANEL,Closure          |
|        | GET|HEAD  | admin/roles/{role}/edit                                 | admin.roles.edit                    | App\Http\Controllers\LA\RolesController@edit                                    | web,auth,permission:ADMIN_PANEL,Closure          |
|        | GET|HEAD  | admin/save_module_field_sort/{model_id}                 | admin.                              | DesarrollatuApp\NWCRM\Controllers\ModuleController@save_module_field_sort       | web,auth,permission:ADMIN_PANEL,role:SUPER_ADMIN |
|        | POST      | admin/save_module_role_permissions/{id}                 | admin.                              | App\Http\Controllers\LA\RolesController@save_module_role_permissions            | web,auth,permission:ADMIN_PANEL,Closure          |
|        | POST      | admin/save_permissions/{id}                             | admin.                              | App\Http\Controllers\LA\PermissionsController@save_permissions                  | web,auth,permission:ADMIN_PANEL,Closure          |
|        | POST      | admin/save_role_module_permissions/{id}                 | admin.                              | DesarrollatuApp\NWCRM\Controllers\ModuleController@save_role_module_permissions | web,auth,permission:ADMIN_PANEL,role:SUPER_ADMIN |
|        | GET|HEAD  | admin/shipment_agencies                                 | admin.shipment_agencies.index       | App\Http\Controllers\LA\Shipment_AgenciesController@index                       | web,auth,permission:ADMIN_PANEL,Closure          |
|        | POST      | admin/shipment_agencies                                 | admin.shipment_agencies.store       | App\Http\Controllers\LA\Shipment_AgenciesController@store                       | web,auth,permission:ADMIN_PANEL,Closure          |
|        | GET|HEAD  | admin/shipment_agencies/create                          | admin.shipment_agencies.create      | App\Http\Controllers\LA\Shipment_AgenciesController@create                      | web,auth,permission:ADMIN_PANEL,Closure          |
|        | DELETE    | admin/shipment_agencies/{shipment_agency}               | admin.shipment_agencies.destroy     | App\Http\Controllers\LA\Shipment_AgenciesController@destroy                     | web,auth,permission:ADMIN_PANEL,Closure          |
|        | PUT|PATCH | admin/shipment_agencies/{shipment_agency}               | admin.shipment_agencies.update      | App\Http\Controllers\LA\Shipment_AgenciesController@update                      | web,auth,permission:ADMIN_PANEL,Closure          |
|        | GET|HEAD  | admin/shipment_agencies/{shipment_agency}               | admin.shipment_agencies.show        | App\Http\Controllers\LA\Shipment_AgenciesController@show                        | web,auth,permission:ADMIN_PANEL,Closure          |
|        | GET|HEAD  | admin/shipment_agencies/{shipment_agency}/edit          | admin.shipment_agencies.edit        | App\Http\Controllers\LA\Shipment_AgenciesController@edit                        | web,auth,permission:ADMIN_PANEL,Closure          |
|        | GET|HEAD  | admin/shipment_agency_dt_ajax                           | admin.                              | App\Http\Controllers\LA\Shipment_AgenciesController@dtajax                      | web,auth,permission:ADMIN_PANEL,Closure          |
|        | GET|HEAD  | admin/shipment_dt_ajax                                  | admin.                              | App\Http\Controllers\LA\ShipmentsController@dtajax                              | web,auth,permission:ADMIN_PANEL,Closure          |
|        | GET|HEAD  | admin/shipment_status_dt_ajax                           | admin.                              | App\Http\Controllers\LA\Shipment_StatusesController@dtajax                      | web,auth,permission:ADMIN_PANEL,Closure          |
|        | POST      | admin/shipment_statuses                                 | admin.shipment_statuses.store       | App\Http\Controllers\LA\Shipment_StatusesController@store                       | web,auth,permission:ADMIN_PANEL,Closure          |
|        | GET|HEAD  | admin/shipment_statuses                                 | admin.shipment_statuses.index       | App\Http\Controllers\LA\Shipment_StatusesController@index                       | web,auth,permission:ADMIN_PANEL,Closure          |
|        | GET|HEAD  | admin/shipment_statuses/create                          | admin.shipment_statuses.create      | App\Http\Controllers\LA\Shipment_StatusesController@create                      | web,auth,permission:ADMIN_PANEL,Closure          |
|        | DELETE    | admin/shipment_statuses/{shipment_status}               | admin.shipment_statuses.destroy     | App\Http\Controllers\LA\Shipment_StatusesController@destroy                     | web,auth,permission:ADMIN_PANEL,Closure          |
|        | PUT|PATCH | admin/shipment_statuses/{shipment_status}               | admin.shipment_statuses.update      | App\Http\Controllers\LA\Shipment_StatusesController@update                      | web,auth,permission:ADMIN_PANEL,Closure          |
|        | GET|HEAD  | admin/shipment_statuses/{shipment_status}               | admin.shipment_statuses.show        | App\Http\Controllers\LA\Shipment_StatusesController@show                        | web,auth,permission:ADMIN_PANEL,Closure          |
|        | GET|HEAD  | admin/shipment_statuses/{shipment_status}/edit          | admin.shipment_statuses.edit        | App\Http\Controllers\LA\Shipment_StatusesController@edit                        | web,auth,permission:ADMIN_PANEL,Closure          |
|        | GET|HEAD  | admin/shipment_travel_type_dt_ajax                      | admin.                              | App\Http\Controllers\LA\Shipment_Travel_TypesController@dtajax                  | web,auth,permission:ADMIN_PANEL,Closure          |
|        | GET|HEAD  | admin/shipment_travel_types                             | admin.shipment_travel_types.index   | App\Http\Controllers\LA\Shipment_Travel_TypesController@index                   | web,auth,permission:ADMIN_PANEL,Closure          |
|        | POST      | admin/shipment_travel_types                             | admin.shipment_travel_types.store   | App\Http\Controllers\LA\Shipment_Travel_TypesController@store                   | web,auth,permission:ADMIN_PANEL,Closure          |
|        | GET|HEAD  | admin/shipment_travel_types/create                      | admin.shipment_travel_types.create  | App\Http\Controllers\LA\Shipment_Travel_TypesController@create                  | web,auth,permission:ADMIN_PANEL,Closure          |
|        | GET|HEAD  | admin/shipment_travel_types/{shipment_travel_type}      | admin.shipment_travel_types.show    | App\Http\Controllers\LA\Shipment_Travel_TypesController@show                    | web,auth,permission:ADMIN_PANEL,Closure          |
|        | PUT|PATCH | admin/shipment_travel_types/{shipment_travel_type}      | admin.shipment_travel_types.update  | App\Http\Controllers\LA\Shipment_Travel_TypesController@update                  | web,auth,permission:ADMIN_PANEL,Closure          |
|        | DELETE    | admin/shipment_travel_types/{shipment_travel_type}      | admin.shipment_travel_types.destroy | App\Http\Controllers\LA\Shipment_Travel_TypesController@destroy                 | web,auth,permission:ADMIN_PANEL,Closure          |
|        | GET|HEAD  | admin/shipment_travel_types/{shipment_travel_type}/edit | admin.shipment_travel_types.edit    | App\Http\Controllers\LA\Shipment_Travel_TypesController@edit                    | web,auth,permission:ADMIN_PANEL,Closure          |
|        | GET|HEAD  | admin/shipment_update_dt_ajax                           | admin.                              | App\Http\Controllers\LA\Shipment_UpdatesController@dtajax                       | web,auth,permission:ADMIN_PANEL,Closure          |
|        | POST      | admin/shipment_updates                                  | admin.shipment_updates.store        | App\Http\Controllers\LA\Shipment_UpdatesController@store                        | web,auth,permission:ADMIN_PANEL,Closure          |
|        | GET|HEAD  | admin/shipment_updates                                  | admin.shipment_updates.index        | App\Http\Controllers\LA\Shipment_UpdatesController@index                        | web,auth,permission:ADMIN_PANEL,Closure          |
|        | GET|HEAD  | admin/shipment_updates/create                           | admin.shipment_updates.create       | App\Http\Controllers\LA\Shipment_UpdatesController@create                       | web,auth,permission:ADMIN_PANEL,Closure          |
|        | PUT|PATCH | admin/shipment_updates/{shipment_update}                | admin.shipment_updates.update       | App\Http\Controllers\LA\Shipment_UpdatesController@update                       | web,auth,permission:ADMIN_PANEL,Closure          |
|        | DELETE    | admin/shipment_updates/{shipment_update}                | admin.shipment_updates.destroy      | App\Http\Controllers\LA\Shipment_UpdatesController@destroy                      | web,auth,permission:ADMIN_PANEL,Closure          |
|        | GET|HEAD  | admin/shipment_updates/{shipment_update}                | admin.shipment_updates.show         | App\Http\Controllers\LA\Shipment_UpdatesController@show                         | web,auth,permission:ADMIN_PANEL,Closure          |
|        | GET|HEAD  | admin/shipment_updates/{shipment_update}/edit           | admin.shipment_updates.edit         | App\Http\Controllers\LA\Shipment_UpdatesController@edit                         | web,auth,permission:ADMIN_PANEL,Closure          |
|        | POST      | admin/shipments                                         | admin.shipments.store               | App\Http\Controllers\LA\ShipmentsController@store                               | web,auth,permission:ADMIN_PANEL,Closure          |
|        | GET|HEAD  | admin/shipments                                         | admin.shipments.index               | App\Http\Controllers\LA\ShipmentsController@index                               | web,auth,permission:ADMIN_PANEL,Closure          |
|        | GET|HEAD  | admin/shipments/create                                  | admin.shipments.create              | App\Http\Controllers\LA\ShipmentsController@create                              | web,auth,permission:ADMIN_PANEL,Closure          |
|        | GET|HEAD  | admin/shipments/{shipment}                              | admin.shipments.show                | App\Http\Controllers\LA\ShipmentsController@show                                | web,auth,permission:ADMIN_PANEL,Closure          |
|        | DELETE    | admin/shipments/{shipment}                              | admin.shipments.destroy             | App\Http\Controllers\LA\ShipmentsController@destroy                             | web,auth,permission:ADMIN_PANEL,Closure          |
|        | PUT|PATCH | admin/shipments/{shipment}                              | admin.shipments.update              | App\Http\Controllers\LA\ShipmentsController@update                              | web,auth,permission:ADMIN_PANEL,Closure          |
|        | GET|HEAD  | admin/shipments/{shipment}/edit                         | admin.shipments.edit                | App\Http\Controllers\LA\ShipmentsController@edit                                | web,auth,permission:ADMIN_PANEL,Closure          |
|        | GET|HEAD  | admin/store_dt_ajax                                     | admin.                              | App\Http\Controllers\LA\StoresController@dtajax                                 | web,auth,permission:ADMIN_PANEL,Closure          |
|        | GET|HEAD  | admin/stores                                            | admin.stores.index                  | App\Http\Controllers\LA\StoresController@index                                  | web,auth,permission:ADMIN_PANEL,Closure          |
|        | POST      | admin/stores                                            | admin.stores.store                  | App\Http\Controllers\LA\StoresController@store                                  | web,auth,permission:ADMIN_PANEL,Closure          |
|        | GET|HEAD  | admin/stores/create                                     | admin.stores.create                 | App\Http\Controllers\LA\StoresController@create                                 | web,auth,permission:ADMIN_PANEL,Closure          |
|        | GET|HEAD  | admin/stores/{store}                                    | admin.stores.show                   | App\Http\Controllers\LA\StoresController@show                                   | web,auth,permission:ADMIN_PANEL,Closure          |
|        | PUT|PATCH | admin/stores/{store}                                    | admin.stores.update                 | App\Http\Controllers\LA\StoresController@update                                 | web,auth,permission:ADMIN_PANEL,Closure          |
|        | DELETE    | admin/stores/{store}                                    | admin.stores.destroy                | App\Http\Controllers\LA\StoresController@destroy                                | web,auth,permission:ADMIN_PANEL,Closure          |
|        | GET|HEAD  | admin/stores/{store}/edit                               | admin.stores.edit                   | App\Http\Controllers\LA\StoresController@edit                                   | web,auth,permission:ADMIN_PANEL,Closure          |
|        | GET|HEAD  | admin/unit_dt_ajax                                      | admin.                              | App\Http\Controllers\LA\UnitsController@dtajax                                  | web,auth,permission:ADMIN_PANEL,Closure          |
|        | POST      | admin/units                                             | admin.units.store                   | App\Http\Controllers\LA\UnitsController@store                                   | web,auth,permission:ADMIN_PANEL,Closure          |
|        | GET|HEAD  | admin/units                                             | admin.units.index                   | App\Http\Controllers\LA\UnitsController@index                                   | web,auth,permission:ADMIN_PANEL,Closure          |
|        | GET|HEAD  | admin/units/create                                      | admin.units.create                  | App\Http\Controllers\LA\UnitsController@create                                  | web,auth,permission:ADMIN_PANEL,Closure          |
|        | DELETE    | admin/units/{unit}                                      | admin.units.destroy                 | App\Http\Controllers\LA\UnitsController@destroy                                 | web,auth,permission:ADMIN_PANEL,Closure          |
|        | PUT|PATCH | admin/units/{unit}                                      | admin.units.update                  | App\Http\Controllers\LA\UnitsController@update                                  | web,auth,permission:ADMIN_PANEL,Closure          |
|        | GET|HEAD  | admin/units/{unit}                                      | admin.units.show                    | App\Http\Controllers\LA\UnitsController@show                                    | web,auth,permission:ADMIN_PANEL,Closure          |
|        | GET|HEAD  | admin/units/{unit}/edit                                 | admin.units.edit                    | App\Http\Controllers\LA\UnitsController@edit                                    | web,auth,permission:ADMIN_PANEL,Closure          |
|        | POST      | admin/upload_files                                      | admin.                              | App\Http\Controllers\LA\UploadsController@upload_files                          | web,auth,permission:ADMIN_PANEL                  |
|        | GET|HEAD  | admin/uploaded_files                                    | admin.                              | App\Http\Controllers\LA\UploadsController@uploaded_files                        | web,auth,permission:ADMIN_PANEL                  |
|        | GET|HEAD  | admin/uploads                                           | admin.uploads.index                 | App\Http\Controllers\LA\UploadsController@index                                 | web,auth,permission:ADMIN_PANEL                  |
|        | POST      | admin/uploads                                           | admin.uploads.store                 | App\Http\Controllers\LA\UploadsController@store                                 | web,auth,permission:ADMIN_PANEL                  |
|        | GET|HEAD  | admin/uploads/create                                    | admin.uploads.create                | App\Http\Controllers\LA\UploadsController@create                                | web,auth,permission:ADMIN_PANEL                  |
|        | GET|HEAD  | admin/uploads/{upload}                                  | admin.uploads.show                  | App\Http\Controllers\LA\UploadsController@show                                  | web,auth,permission:ADMIN_PANEL                  |
|        | PUT|PATCH | admin/uploads/{upload}                                  | admin.uploads.update                | App\Http\Controllers\LA\UploadsController@update                                | web,auth,permission:ADMIN_PANEL                  |
|        | DELETE    | admin/uploads/{upload}                                  | admin.uploads.destroy               | App\Http\Controllers\LA\UploadsController@destroy                               | web,auth,permission:ADMIN_PANEL                  |
|        | GET|HEAD  | admin/uploads/{upload}/edit                             | admin.uploads.edit                  | App\Http\Controllers\LA\UploadsController@edit                                  | web,auth,permission:ADMIN_PANEL                  |
|        | POST      | admin/uploads_delete_file                               | admin.                              | App\Http\Controllers\LA\UploadsController@delete_file                           | web,auth,permission:ADMIN_PANEL                  |
|        | POST      | admin/uploads_update_caption                            | admin.                              | App\Http\Controllers\LA\UploadsController@update_caption                        | web,auth,permission:ADMIN_PANEL                  |
|        | POST      | admin/uploads_update_filename                           | admin.                              | App\Http\Controllers\LA\UploadsController@update_filename                       | web,auth,permission:ADMIN_PANEL                  |
|        | POST      | admin/uploads_update_public                             | admin.                              | App\Http\Controllers\LA\UploadsController@update_public                         | web,auth,permission:ADMIN_PANEL                  |
|        | GET|HEAD  | admin/user_dt_ajax                                      | admin.                              | App\Http\Controllers\LA\UsersController@dtajax                                  | web,auth,permission:ADMIN_PANEL,Closure          |
|        | GET|HEAD  | admin/user_field_dt_ajax                                | admin.                              | App\Http\Controllers\LA\User_FieldsController@dtajax                            | web,auth,permission:ADMIN_PANEL,Closure          |
|        | GET|HEAD  | admin/user_field_value_dt_ajax                          | admin.                              | App\Http\Controllers\LA\User_Field_ValuesController@dtajax                      | web,auth,permission:ADMIN_PANEL,Closure          |
|        | GET|HEAD  | admin/user_field_values                                 | admin.user_field_values.index       | App\Http\Controllers\LA\User_Field_ValuesController@index                       | web,auth,permission:ADMIN_PANEL,Closure          |
|        | POST      | admin/user_field_values                                 | admin.user_field_values.store       | App\Http\Controllers\LA\User_Field_ValuesController@store                       | web,auth,permission:ADMIN_PANEL,Closure          |
|        | GET|HEAD  | admin/user_field_values/create                          | admin.user_field_values.create      | App\Http\Controllers\LA\User_Field_ValuesController@create                      | web,auth,permission:ADMIN_PANEL,Closure          |
|        | PUT|PATCH | admin/user_field_values/{user_field_value}              | admin.user_field_values.update      | App\Http\Controllers\LA\User_Field_ValuesController@update                      | web,auth,permission:ADMIN_PANEL,Closure          |
|        | GET|HEAD  | admin/user_field_values/{user_field_value}              | admin.user_field_values.show        | App\Http\Controllers\LA\User_Field_ValuesController@show                        | web,auth,permission:ADMIN_PANEL,Closure          |
|        | DELETE    | admin/user_field_values/{user_field_value}              | admin.user_field_values.destroy     | App\Http\Controllers\LA\User_Field_ValuesController@destroy                     | web,auth,permission:ADMIN_PANEL,Closure          |
|        | GET|HEAD  | admin/user_field_values/{user_field_value}/edit         | admin.user_field_values.edit        | App\Http\Controllers\LA\User_Field_ValuesController@edit                        | web,auth,permission:ADMIN_PANEL,Closure          |
|        | GET|HEAD  | admin/user_fields                                       | admin.user_fields.index             | App\Http\Controllers\LA\User_FieldsController@index                             | web,auth,permission:ADMIN_PANEL,Closure          |
|        | POST      | admin/user_fields                                       | admin.user_fields.store             | App\Http\Controllers\LA\User_FieldsController@store                             | web,auth,permission:ADMIN_PANEL,Closure          |
|        | GET|HEAD  | admin/user_fields/create                                | admin.user_fields.create            | App\Http\Controllers\LA\User_FieldsController@create                            | web,auth,permission:ADMIN_PANEL,Closure          |
|        | GET|HEAD  | admin/user_fields/{user_field}                          | admin.user_fields.show              | App\Http\Controllers\LA\User_FieldsController@show                              | web,auth,permission:ADMIN_PANEL,Closure          |
|        | PUT|PATCH | admin/user_fields/{user_field}                          | admin.user_fields.update            | App\Http\Controllers\LA\User_FieldsController@update                            | web,auth,permission:ADMIN_PANEL,Closure          |
|        | DELETE    | admin/user_fields/{user_field}                          | admin.user_fields.destroy           | App\Http\Controllers\LA\User_FieldsController@destroy                           | web,auth,permission:ADMIN_PANEL,Closure          |
|        | GET|HEAD  | admin/user_fields/{user_field}/edit                     | admin.user_fields.edit              | App\Http\Controllers\LA\User_FieldsController@edit                              | web,auth,permission:ADMIN_PANEL,Closure          |
|        | GET|HEAD  | admin/user_type_dt_ajax                                 | admin.                              | App\Http\Controllers\LA\User_TypesController@dtajax                             | web,auth,permission:ADMIN_PANEL,Closure          |
|        | GET|HEAD  | admin/user_types                                        | admin.user_types.index              | App\Http\Controllers\LA\User_TypesController@index                              | web,auth,permission:ADMIN_PANEL,Closure          |
|        | POST      | admin/user_types                                        | admin.user_types.store              | App\Http\Controllers\LA\User_TypesController@store                              | web,auth,permission:ADMIN_PANEL,Closure          |
|        | GET|HEAD  | admin/user_types/create                                 | admin.user_types.create             | App\Http\Controllers\LA\User_TypesController@create                             | web,auth,permission:ADMIN_PANEL,Closure          |
|        | DELETE    | admin/user_types/{user_type}                            | admin.user_types.destroy            | App\Http\Controllers\LA\User_TypesController@destroy                            | web,auth,permission:ADMIN_PANEL,Closure          |
|        | PUT|PATCH | admin/user_types/{user_type}                            | admin.user_types.update             | App\Http\Controllers\LA\User_TypesController@update                             | web,auth,permission:ADMIN_PANEL,Closure          |
|        | GET|HEAD  | admin/user_types/{user_type}                            | admin.user_types.show               | App\Http\Controllers\LA\User_TypesController@show                               | web,auth,permission:ADMIN_PANEL,Closure          |
|        | GET|HEAD  | admin/user_types/{user_type}/edit                       | admin.user_types.edit               | App\Http\Controllers\LA\User_TypesController@edit                               | web,auth,permission:ADMIN_PANEL,Closure          |
|        | GET|HEAD  | admin/users                                             | admin.users.index                   | App\Http\Controllers\LA\UsersController@index                                   | web,auth,permission:ADMIN_PANEL,Closure          |
|        | POST      | admin/users                                             | admin.users.store                   | App\Http\Controllers\LA\UsersController@store                                   | web,auth,permission:ADMIN_PANEL,Closure          |
|        | GET|HEAD  | admin/users/create                                      | admin.users.create                  | App\Http\Controllers\LA\UsersController@create                                  | web,auth,permission:ADMIN_PANEL,Closure          |
|        | DELETE    | admin/users/{user}                                      | admin.users.destroy                 | App\Http\Controllers\LA\UsersController@destroy                                 | web,auth,permission:ADMIN_PANEL,Closure          |
|        | PUT|PATCH | admin/users/{user}                                      | admin.users.update                  | App\Http\Controllers\LA\UsersController@update                                  | web,auth,permission:ADMIN_PANEL,Closure          |
|        | GET|HEAD  | admin/users/{user}                                      | admin.users.show                    | App\Http\Controllers\LA\UsersController@show                                    | web,auth,permission:ADMIN_PANEL,Closure          |
|        | GET|HEAD  | admin/users/{user}/edit                                 | admin.users.edit                    | App\Http\Controllers\LA\UsersController@edit                                    | web,auth,permission:ADMIN_PANEL,Closure          |
|        | GET|HEAD  | admin/warehouse_receipt_dt_ajax                         | admin.                              | App\Http\Controllers\LA\Warehouse_ReceiptsController@dtajax                     | web,auth,permission:ADMIN_PANEL,Closure          |
|        | GET|HEAD  | admin/warehouse_receipts                                | admin.warehouse_receipts.index      | App\Http\Controllers\LA\Warehouse_ReceiptsController@index                      | web,auth,permission:ADMIN_PANEL,Closure          |
|        | POST      | admin/warehouse_receipts                                | admin.warehouse_receipts.store      | App\Http\Controllers\LA\Warehouse_ReceiptsController@store                      | web,auth,permission:ADMIN_PANEL,Closure          |
|        | GET|HEAD  | admin/warehouse_receipts/create                         | admin.warehouse_receipts.create     | App\Http\Controllers\LA\Warehouse_ReceiptsController@create                     | web,auth,permission:ADMIN_PANEL,Closure          |
|        | DELETE    | admin/warehouse_receipts/{warehouse_receipt}            | admin.warehouse_receipts.destroy    | App\Http\Controllers\LA\Warehouse_ReceiptsController@destroy                    | web,auth,permission:ADMIN_PANEL,Closure          |
|        | PUT|PATCH | admin/warehouse_receipts/{warehouse_receipt}            | admin.warehouse_receipts.update     | App\Http\Controllers\LA\Warehouse_ReceiptsController@update                     | web,auth,permission:ADMIN_PANEL,Closure          |
|        | GET|HEAD  | admin/warehouse_receipts/{warehouse_receipt}            | admin.warehouse_receipts.show       | App\Http\Controllers\LA\Warehouse_ReceiptsController@show                       | web,auth,permission:ADMIN_PANEL,Closure          |
|        | GET|HEAD  | admin/warehouse_receipts/{warehouse_receipt}/edit       | admin.warehouse_receipts.edit       | App\Http\Controllers\LA\Warehouse_ReceiptsController@edit                       | web,auth,permission:ADMIN_PANEL,Closure          |
|        | GET|HEAD  | api/v1/file/{id}                                        |                                     | App\Http\Controllers\LA\UploadsController@getById                               | api,auth:api,auth                                |
|        | GET|HEAD  | api/v1/models/popupQuery/{model}                        |                                     | App\Http\Controllers\Api\ModelController@popupQuery                             | api,auth:api                                     |
|        | GET|HEAD  | api/v1/models/{model}                                   |                                     | App\Http\Controllers\Api\ModelController@index                                  | api,auth:api                                     |
|        | POST      | api/v1/models/{model}                                   |                                     | App\Http\Controllers\Api\ModelController@store                                  | api,auth:api                                     |
|        | GET|HEAD  | api/v1/models/{model}/delete/{id}                       |                                     | App\Http\Controllers\Api\ModelController@destroy                                | api,auth:api                                     |
|        | POST      | api/v1/models/{model}/import                            |                                     | App\Http\Controllers\Api\ModelController@import                                 | api,auth:api                                     |
|        | GET|HEAD  | api/v1/models/{model}/instance/{id}                     |                                     | App\Http\Controllers\Api\ModelController@show                                   | api,auth:api                                     |
|        | GET|HEAD  | api/v1/models/{model}/manage/{id}                       |                                     | App\Http\Controllers\Api\ModelController@edit                                   | api,auth:api                                     |
|        | POST      | api/v1/models/{model}/multidelete                       |                                     | App\Http\Controllers\Api\ModelController@multiDelete                            | api,auth:api                                     |
|        | GET|HEAD  | api/v1/models/{model}/popupVals                         |                                     | App\Http\Controllers\Api\ModelController@popupVals                              | api,auth:api                                     |
|        | POST      | api/v1/models/{model}/update/{id}                       |                                     | App\Http\Controllers\Api\ModelController@update                                 | api,auth:api                                     |
|        | POST      | api/v1/popupVals                                        |                                     | App\Http\Controllers\Api\ModelController@popupVals                              | api,auth:api                                     |
|        | GET|HEAD  | files/{hash}/{name}                                     |                                     | App\Http\Controllers\LA\UploadsController@get_file                              | web                                              |
|        | GET|HEAD  | home                                                    |                                     | App\Http\Controllers\HomeController@index                                       | web                                              |
|        | GET|HEAD  | login                                                   | login                               | App\Http\Controllers\Auth\LoginController@showLoginForm                         | web,guest                                        |
|        | POST      | login                                                   |                                     | App\Http\Controllers\Auth\LoginController@login                                 | web,guest                                        |
|        | GET|HEAD  | logout                                                  |                                     | App\Http\Controllers\Auth\LoginController@logout                                | web                                              |
|        | POST      | logout                                                  | logout                              | App\Http\Controllers\Auth\LoginController@logout                                | web                                              |
|        | POST      | password/email                                          | password.email                      | App\Http\Controllers\Auth\ForgotPasswordController@sendResetLinkEmail           | web,guest                                        |
|        | POST      | password/reset                                          |                                     | App\Http\Controllers\Auth\ResetPasswordController@reset                         | web,guest                                        |
|        | GET|HEAD  | password/reset                                          | password.request                    | App\Http\Controllers\Auth\ForgotPasswordController@showLinkRequestForm          | web,guest                                        |
|        | GET|HEAD  | password/reset/{token}                                  | password.reset                      | App\Http\Controllers\Auth\ResetPasswordController@showResetForm                 | web,guest                                        |
|        | GET|HEAD  | register                                                | register                            | App\Http\Controllers\Auth\RegisterController@showRegistrationForm               | web,guest                                        |
|        | POST      | register                                                |                                     | App\Http\Controllers\Auth\RegisterController@register                           | web,guest                                        |
+--------+-----------+---------------------------------------------------------+-------------------------------------+---------------------------------------------------------------------------------+--------------------------------------------------+
